:1000000000400002B5010000290200002F0200009C
:10001000350200003B020000410200000000000029
:100020000000000000000000000000004702000087
:100030004D0200000000000015170000F110000044
:100040005F0200005F0200005F0200005F0200002C
:10005000450600005F0200005F0200005F02000032
:100060005F0200005F0200005F0200005F0200000C
:100070005F0200005F0200005F0200005F020000FC
:100080005F0200005F0200005F0200005F020000EC
:100090005F0200005F0200005F0200005F020000DC
:1000A000650700005F0200005F0200005F020000C1
:1000B000911100005F0200005F0200005F0200007B
:1000C0005F0200005F0200005F0200005F020000AC
:1000D0005F0200005F0200005F0200005F0200009C
:1000E0005F0200005F0200005F0200005F0200008C
:1000F0005F0200005F0200005F020000B41A00000F
:100100000000000288000000B41A00000040000255
:1001100000000000B41A000000800002000000008F
:1001200088000002C007000000400002000000003C
:10013000008000020000000080B489B000AFF860C9
:10014000B9607A60BB68FB61FB68BB6100237B61BF
:100150000AE0BA69131DBB61FB69191DF9611268D8
:100160001A607B6904337B617A697B689A42F0D3B9
:1001700000BF00BF2437BD4680BC704780B485B047
:1001800000AF786039607B68FB600023BB6007E0EC
:10019000FB681A1DFA6000221A60BB680433BB605A
:1001A000BA683B689A42F3D300BF00BF1437BD461C
:1001B00080BC704780B584B000AF184BFB6013E083
:1001C000FB681A1DFA601B683B60FB681A1DFA6029
:1001D0001B68BB60FB681A1DFA601B687B607A684D
:1001E000B9683868FFF7A8FFFB680D4A9342E7D368
:1001F0000DE0FB681A1DFA601B68BB60FB681A1DE6
:10020000FA601B687B607968B868FFF7B7FFFB6826
:10021000044A9342EDD301F08FFBFEE7FC0000009F
:10022000200100003801000080B400AFFEE780B478
:1002300000AFFEE780B400AFFEE780B400AFFEE79A
:1002400080B400AFFEE780B400AFFEE780B400AF3B
:10025000FEE780B400AFFEE780B400AFFEE780B4F5
:1002600000AFFEE780B582B000AF1F4B7B607B68BC
:1002700002221A617B6802225A617B681B4A9A61DA
:100280007B681B4ADA617B684FF480621A627B6884
:1002900000229A627B6800225A627B680022DA623E
:1002A0007B68124A9A647B68124ADA647B6810227F
:1002B0001A657B6800229A657B6800225A657B6814
:1002C0000022DA657B6807330B49184601F036FBDC
:1002D0007B680A49184601F031FB7B6820229A713D
:1002E00000BF0837BD4680BD88000002E419000049
:1002F0000001000200050002F0190000F4190000DE
:1003000080B500AFFFF7AEFF00BF80BD80B485B001
:1003100000AF78607B68FB60FB6893F8ED30002BE2
:1003200014BF01230023DBB218461437BD4680BC3E
:100330007047FFFF80B483B000AF00237B600CE008
:100340000A4A7B6813441978094A7B6813440433CA
:100350000A461A707B6801337B607B68022BEFDDF5
:1003600000BF00BF0C37BD4680BC70475C05000273
:100370001005000280B584B000AFF860B9607A6003
:100380003B60BB68DB78032B19D0032B21DC012BEE
:1003900002D0022B09D01CE0FFF7CCFF7B680F4A8C
:1003A0001A603B6803221A8013E07B680C4A1A60CB
:1003B0000C4B93F847309AB23B681A8009E07B688F
:1003C000094A1A60074B93F848309AB23B681A8082
:1003D00000BF002318461037BD4680BD140500023B
:1003E00017050002100500023705000280B584B031
:1003F00000AFF860B9607A607B807B88002B01D108
:1004000000232FE0BB68DB78032B08D0032B28DC0C
:10041000012B02D0022B13D023E0144B22E07B6887
:100420001B687A881946124801F082FA7B88DAB292
:10043000104B83F848200F4B012283F84A2010E02C
:100440007B681B687A8819460B4801F071FA7B8833
:10045000DAB2084B83F84720064B012283F84B2081
:1004600000BF002318461037BD4680BD03000400BE
:1004700037050002100500021705000280B485B0A0
:1004800000AFF860B9607A607B68032B04D1054B3C
:10049000002283F8492000BF002318461437BD46C8
:1004A00080BC70471005000280B596B000AFF860C0
:1004B000B9607A603B6000237B65BB68002B03D08A
:1004C000BB685B79032B02D04FF0FF3335E007F1B7
:1004D0001C0338220021184601F02CFA012387F86A
:1004E00024307B681B68FB613B681B683B62BB6810
:1004F000BB62144B3B63144B7B63144B7B64144B08
:100500001B88BB820023BB75124BBB6107F1140330
:10051000FB62114B1B681B695B6807F11C021146EB
:10052000F86898477865FA697B681A603A6A3B68A8
:100530001A600A4AFB6813607B6D18465837BD463F
:1005400080BD00BF75030000ED0300007D040000C6
:10055000A81A0000FC1900000007000210050002A4
:1005600080B400AF034B93F84B301846BD4680BCB7
:10057000704700BF1005000280B584B000AF7860FE
:100580000B46FB700B4B93F84730FA78934228BF29
:100590001346DBB2FB60FB681A460749786801F036
:1005A000C7F9044B002283F84B2000BF1037BD462B
:1005B00080BD00BF100500021705000298B500AF0E
:1005C000154B1B681846FFF7A1FE0346002B15D0FC
:1005D000114B93F84930002B1CD1FFF7ABFE0E4BAB
:1005E000012283F849200D4B1B681B681C6D0A4BC8
:1005F000186803230A4A8121A0470BE0064B00221A
:1006000083F84920044B002283F84B20024B002240
:1006100083F84A2000BF98BD1005000200070002C1
:100620001405000280B483B000AF78607B68B3FA31
:1006300083F37B607B68C3F1200318460C37BD460B
:1006400080BC704780B586B000AF1C4B9B6D3B6192
:100650001A4B1B6EFB60194B1B6CBB603A69FB6845
:1006600013437B617869FFF7DDFF78607B68002BBF
:1006700016D07B68013B012202FA03F3DB437A695F
:1006800013407B617B68013B0D4A52F82330002BFD
:10069000E8D07B68013B0A4A52F823309847E1E7EB
:1006A00000BF064ABB681364044A3B699365034A6A
:1006B000FB68136600BF1837BD4680BD0040001CB4
:1006C0006005000280B487B000AFF860B9607A605E
:1006D000FB70FB6801221A6000BFFB685B6803F0D7
:1006E0000103002BF9D0FB685B6803F00E03002BBD
:1006F00032D197F82030012B0CD17B689B78002BEE
:1007000008D10123FB75BB6808221A80BB68002250
:100710005A8016E00023FB757B689B78002B0AD07B
:10072000BB6802221A807B689B789BB2DB009AB27E
:10073000BB685A8005E0BB6804221A80BB680022AF
:100740005A80FB785A00FB7D1343DAB2FB689A6249
:10075000FB6802221A6200E000BF1C37BD4680BC65
:100760007047FFFF90B58BB002AF9A4B1B68BB611F
:10077000994B7B617B691B79FB74FB7CDB00974A9F
:100780001344FB607B695B791A4613469B00134454
:100790009B00934A1344BB60FA7C13469B001344AE
:1007A000904A13447B60BB695B683B600023FB7726
:1007B0000123BB773B6803F01003002B1BD07B6940
:1007C000DB790133DAB27B69DA717B69DA797B68CC
:1007D0001B799A4209D9FB685B8843F480639AB21B
:1007E000FB685A800323BB7701E00223BB77BB6918
:1007F00010225A6034E13B6803F04003002B1BD009
:100800007B69DB790133DAB27B69DA717B69DA798A
:100810007B681B799A4209D9FB685B8843F4806343
:100820009AB2FB685A800323BB7701E00223BB77AF
:10083000BB6940225A6013E13B6803F00103002BBF
:1008400000F00E813B6803F00E033B60BB7F012B81
:1008500040F006817B691B88023B0E2B00F2008171
:1008600001A252F823F000BF2B090000610A00002A
:10087000E9090000610A0000610A0000610A000045
:10088000A5080000610A0000610A0000610A00007A
:10089000610A0000610A0000610A0000610A0000AC
:1008A000B70900003B68022B25D1BB689B89002B50
:1008B00008D0BB69996ABB685B687A69528813443F
:1008C000CAB21A707B695B880133BA689289934215
:1008D00006DA7B6908221A80BB6901221A6203E0EA
:1008E0000323BB770123FB777B695B8801339AB2D3
:1008F0007B695A80B4E07B69DB790133DAB27B69CA
:10090000DA717B69DA797B681B799A420AD9FB68CC
:100910005A887B691B8813439AB2FB685A80032369
:10092000BB779DE00223BB779AE03B68042B28D17C
:10093000BB689B68DBB21A46BB699A62BB6901223D
:100940001A627B695B88083B9AB27B695A807B6933
:100950005B88002B40F08380BB689B89002B0BD009
:10096000BB681B7C002B03D17B6910221A8076E0C8
:100970007B6904221A8072E00323BB770123FB7793
:100980006DE07B69DB790133DAB27B69DA717B690F
:10099000DA797B681B799A420AD9FB685A887B69A5
:1009A0001B8813439AB2FB685A800323BB7756E037
:1009B0000223BB7753E0BB689B7B5B0043F00103E2
:1009C000DAB2BB699A62BB6902221A627B690822A9
:1009D0001A8045E024000002A8050002F406000287
:1009E000B4050002AC1A00003B68042B1DD17B69E2
:1009F0005A88BB689B899A4212D2BB685B687A6945
:100A0000528813441B781A46BB699A62BB6901225B
:100A10001A627B695B8801339AB27B695A801FE056
:100A20000323BB770123FB771AE07B69DB79013372
:100A3000DAB27B69DA717B69DA797B681B799A4271
:100A40000AD9FB685A887B691B8813439AB2FB68F2
:100A50005A800323BB7703E00223BB7700E000BF8B
:100A6000BB7F012B00F09A80BB7F022B0BD1BB68B0
:100A70009A7BBB681B7C009313467A687969B869D6
:100A8000FFF720FE8AE000BFBB695B6803F001034B
:100A9000002BF9D0BB6904221A627B699B79002B79
:100AA00005D07B699B79013BDAB27B699A717B69DE
:100AB0009B79002B5CD07B695B7901335A4203F050
:100AC0000F0302F00F0258BF5342DAB27B695A712A
:100AD0007B695B791946334A0B469B000B449B00AC
:100AE00013440F331B78FB747B69FA7C1A717B69A2
:100AF0000022DA71FB7C2C4A32F83330013B9AB287
:100B0000BB695A61FB7C284ADB0013441B791B013B
:100B100003F07002FB7C2449DB000B445B7903F09B
:100B2000070313431A46BB695A62FA7C13469B00BB
:100B300013441E4A1A447B695B79184619490346D7
:100B40009B0003449B000B440E3319787B695B794F
:100B50001C46144823469B0023449B000344103347
:100B60001B7800930B467969B869FFF7ABFD05E088
:100B70007B6900221A80BB690122DA60FB689B79DD
:100B8000013BDAB2FB689A71FB7F002B06D0BB6891
:100B90001B68002B02D0BB681B68984700BF243736
:100BA000BD4690BDB4050002F4060002AC1A000078
:100BB00080B483B000AF0346FB71FB7903F01F03E1
:100BC000012202FA03F1054A97F907305B0942F85E
:100BD000231000BF0C37BD4680BC704700E100E029
:100BE00080B483B000AF03463960FB7197F90730DA
:100BF000002B0BDA3B68DAB20C49FB7903F00F03E8
:100C0000043B5201D2B20B441A7609E03B68DAB2D7
:100C1000074997F907305201D2B20B4483F80023F9
:100C200000BF0C37BD4680BC704700BF00ED00E040
:100C300000E100E080B400AF034B0C229A6000BFDB
:100C4000BD4680BC704700BF00400B4080B487B0F9
:100C500000AF0346FB710023FB75FA7913469B0036
:100C60001344334A13443B614FF0E0523B691B7815
:100C70005B09DBB203F5046352F823203B691B7860
:100C800003F01F0322FA03F303F00103002B14BF48
:100C900001230023DBB25AB23B691B795BB253409C
:100CA0005BB2FB733B699B78002B0CD13B69DB7813
:100CB000DBB2FA7B9A4234D03B690A225A703B6914
:100CC00001229A702DE03B69DB78DBB2FA7B9A4215
:100CD00016D03B6993F90130DBB2013BDBB25AB26B
:100CE0003B695A703B6993F90130002B19DC3B6971
:100CF00000229A703B69FA7BDA700123FB7510E0E1
:100D00003B6993F90130DBB20133DBB25AB23B6984
:100D10005A703B6993F90130092B02DD3B690022CF
:100D20009A70FB7D18461C37BD4680BC704700BFDB
:100D30004400000280B483B000AF0346FB71FA792F
:100D4000064913469B0013440B4403331B78DBB264
:100D500018460C37BD4680BC704700BF44000002F7
:100D600080B485B000AF78600B467B800F4B0022CB
:100D70001A600E4B4FF6FF725A600023FB6008E0CA
:100D8000FB687A6813440A4A1B781370FB680133C6
:100D9000FB607B88FA689A42F2DB044B9B689BB24B
:100DA00018461437BD4680BC704700BF0000011CC8
:100DB0000800011C80B588B000AF19210E48FFF76C
:100DC000CFFF0346FB833B4619220B49184600F030
:100DD000AFFDFB8BDBB27B76FB8B1B0A9BB2DBB2DE
:100DE000BB763B461B221946002000F099FB00BF52
:100DF0002037BD4680BD00BF2800000280B588B006
:100E000000AF3B461B221946002000F0C3FB0346FF
:100E1000002B18D03B4619211846FFF7A1FF0346C7
:100E2000FB837B7E1AB2BB7E1B021BB213431BB239
:100E3000BB83FA8BBB8B9A4205D13B4619221946DC
:100E4000034800F075FD00BF2037BD4680BD00BFE0
:100E50002800000280B400AF164B1B7E002B08D088
:100E6000154B4FF4B4725A60134B4FF4B4721A60BE
:100E700007E0114B4FF498725A600F4B4FF4987281
:100E80001A600C4B1B7E002B08D04FF0E05303F58B
:100E900000531A460423C2F8803207E04FF0E053B3
:100EA00003F500531A460423C2F8003200BFBD46C2
:100EB00080BC70472800000200800F4080B584B0DD
:100EC00000AF78600123BB600C23FB6014E0FB687B
:100ED000DBB21846FFF7BAFEBB685B00BB60FB687D
:100EE000DBB21846FFF726FF03461A46BB681343DA
:100EF000BB60FB68013BFB60FB68002BE7DA034A41
:100F0000BB68136000BF1037BD4680BD24070002D8
:100F100090B587B000AF786000237B6144E056490C
:100F20007A6913465B0013440B4402331B78BB738E
:100F3000BB7B03F00103002B2AD04F497A6913468B
:100F40005B0013440B441B781846FFF7F3FE03467F
:100F50001A46DB01D31A03F17F0447497A69134625
:100F60005B0013440B4401331B781846FFF7E2FE85
:100F700003461A461346DB019B1A23443B6197F94B
:100F80000E30002B06DA3B69C3F1FF033B6101E041
:100F900000233B613B69D9B2384A7B6913440A4656
:100FA0001A707B6901337B617B69012BB7DD0023FC
:100FB000FB7307237B611DE02F4A7B695B001344B1
:100FC000DB79BB73FB7B5B00FB73BB7B03F0010333
:100FD000002B0CD0284A7B695B0013449B79184690
:100FE000FFF7A8FE03461A46FB7B1343FB737B699E
:100FF000013B7B617B69002BDEDA1F4B9B7D184632
:10100000FFF798FE03469B005AB297F90F3013433F
:101010005BB2FB73194AFB7B93704FF0E05303F50F
:101020000053D3F8003103F01003002B17D1144BF9
:101030001B680133124A1360114B1B68642B11D1DA
:101040000D4B1B7E002B0CBF01230023DBB21A4685
:10105000094B1A76FFF7FEFEFFF7ACFE02E0084BE5
:1010600000221A60074B1B680133064A136000BF59
:101070001C37BD4690BD00BF280000025C05000281
:10108000280700023007000280B485B000AF786006
:101090000F4B5B689BB2C3F30A03FB810D4B1B88AC
:1010A0009BB2FA899A4207D0094B1B6803F0805320
:1010B000002B01D0012300E00023DAB2064B1A70A6
:1010C000044AFB89138000BF1437BD4680BC7047BB
:1010D00000C0001C340700023607000280B483B051
:1010E00000AF786000BF0C37BD4680BC7047FFFF83
:1010F00080B500AF00211E4800F0BAFA1D4B1968F8
:101100001D4BA3FB0123DA0813469B0013445B002D
:10111000CA1A002A03D10021184800F0A9FA154B79
:101120001A68174BA3FB02135B09642101FB03F34D
:10113000D31A002B03D10021124800F099FA0D4B6D
:101140001A68114BA3FB02139B094FF47A7101FB40
:1011500003F3D31A002B03D100210C4800F088FAC6
:10116000044B1B680133034A136000BF80BD00BFFE
:10117000BD0E00002C070002CDCCCCCC110F00001E
:101180001F85EB5189100000D34D6210DD10000067
:1011900080B500AF044B1B681B68DB68034A12680C
:1011A0001046984700BF80BD00070002FC06000201
:1011B00080B598B000AF00F0EDFA00F0ABF9FFF7A2
:1011C0009FF8FFF737FD4FF0E05303F500531A4641
:1011D0000023C2F800314FF0E05303F500531A46E4
:1011E0000023C2F804314FF0E05303F500531A46D0
:1011F0000023C2F80831AD4B4FF498721A60AB4B24
:101200004FF498725A60A94B4FF4A4629A60A74BAE
:101210004FF4A462DA60A54B4FF498721A61A34BA5
:101220004FF498725A61A14B4FF498729A619F4B98
:101230004FF49872DA619D4B4FF498721A629B4B8F
:101240004FF498725A62994B4FF498729A62974B86
:101250004FF49872DA62954B4FF498721A63934B7D
:101260004FF498725A63914B4FF494729A638F4B78
:101270004FF49872DA638D4B4FF498721A648B4B6B
:101280004FF498725A64894B4FF486629A64874B84
:101290003022DA64854B30221A65844B30225A653D
:1012A000824B00229A65814B0022DA657F4B302207
:1012B0001A667E4B4FF498725A667C4B4FF49872C4
:1012C0009A667A4B4FF49872DA66784B4FF49872BC
:1012D0001A67764B4FF498725A67744B4FF49872B2
:1012E0009A67724B4FF49872DA674FF0E05303F548
:1012F00000531A460C2313604FF0E05303F50053DC
:101300001A46002353604FF0E05303F500531A468A
:1013100000239360664B4FF0FF321A60644B4FF02E
:10132000FF325A60624B4FF0FF329A60604B4FF0D1
:10133000FF32DA605E4B4FF0FF321A615C4B4FF0C8
:10134000FF325A615A4B4FF0FF329A61584B4FF0BF
:10135000FF32DA61564B4FF0FF321A62544B4FF0B6
:10136000FF325A62524B4FF0FF329A62504B4FF0AD
:10137000FF32DA624E4B4FF0FF321A634C4B4FF0A4
:10138000FF325A634A4B4FF0FF329A63484B4FF695
:10139000FF72DA63464B4FF0FF32C3F8C021444B73
:1013A000444AC3F8C421FFF729FDFFF753FD4FF06E
:1013B000E05303F500531A460823C2F80032002315
:1013C000FB653D4B1B681B681A463C4B1A603C4B47
:1013D000D3F808323A4A23F40073C2F8083207F10E
:1013E000180344220021184600F0A4FA354BBB61D3
:1013F000032387F82430344BFB614FF480533B6266
:10140000324B7B60324BBB60324B3B61314BFB60FC
:1014100000237B61294B1B681B685B6807F118027E
:10142000391D2D489847F865FB6D002B1CD12A4BC0
:10143000186807F1180303F1080107F118031A1DD2
:101440000B462649FFF730F8F865FB6D002B0BD1F2
:101450001C20FFF7ADFB194B1B681B689B681E4ADD
:10146000126801211046984700F0F8F808214FF063
:10147000FF30FFF7B5FB00F047FA194B1B68184A1D
:1014800043F001031360164B1B68154A43F0020337
:101490001360FFF793F8FFF763F80346002B32D091
:1014A000104B1B685A1C0F490A601DE000800F405A
:1014B00000800340FFFF3F0000020003000700021E
:1014C0000040074000C0001C00800002401A0000DD
:1014D000541A000000000002FC060002090000028D
:1014E00010E000E038070002002B00D172B6202186
:1014F0000648FFF741F8064B1B68013B044A13609E
:10150000002B00D162B630BF00BFC2E70407000263
:101510003807000280B400AF00BFBD4680BC7047F2
:1015200090B58DB000AF03463960FB8013467B71E8
:101530003D23FB61FB883B623B687B627B79BB623E
:10154000114BFB62114B1B685A1C10490A60002B9F
:1015500000D172B60E4C07F10C0207F11C031146C4
:101560001846A047094B1B68013B084A1360002B33
:1015700000D162B6FB68002B0CBF01230023DBB255
:1015800018463437BD4690BD4019010038070002A7
:101590000502000390B58DB000AF03463960FB80B3
:1015A00013467B713E23FB61FB883B623B687B6299
:1015B0007B79BB62114BFB62114B1B685A1C1049B3
:1015C0000A60002B00D172B60E4C07F10C0207F135
:1015D0001C0311461846A047094B1B68013B084AEB
:1015E0001360002B00D162B6FB68002B0CBF0123F7
:1015F0000023DBB218463437BD4690BD40190100C8
:10160000380700020502000380B483B000AF034630
:101610003960FB7197F90730002B0BDA3B68DAB2BF
:101620000C49FB7903F00F03043B5201D2B20B4487
:101630001A7609E03B68DAB2074997F90730520198
:10164000D2B20B4483F8002300BF0C37BD4680BCE8
:10165000704700BF00ED00E000E100E080B500AFA2
:101660001E216FF00100FFF7CFFF00BF80BDFFFF1D
:1016700080B487B000AF7860396000237B61214B74
:101680001B78DBB21A4613465B0113449B001E4ACB
:1016900013443B611D4B1B685A1C1C490A60002BFC
:1016A00000D172B63B6993F88030DBB2FB60FB6817
:1016B0000F2B19DCFB68DBB20133DAB23B6983F82C
:1016C00080203B69FA68796843F832103A69FB6810
:1016D000DB0013443A685A600D4B5B680C4A43F0D8
:1016E0008053536001237B61084B1B68013B074A11
:1016F0001360002B00D162B67B6918461C37BD46CB
:1017000080BC7047440800023C0700023807000212
:1017100000ED00E080B584B000AF1C4B1B78DBB25D
:101720001A4613465B0113449B00194A1344BB60DD
:10173000164B1B78DBB2002B0CBF01230023DBB25E
:101740001A46124B1A70BB6893F88030DBB27B608C
:10175000BB68002283F880200023FB600DE0BB689B
:10176000FA6853F83220B968FB68DB000B445B6809
:1017700018469047FB680133FB60FA687B689A4221
:10178000EDDB00BF00BF1037BD4680BD440800023E
:101790003C07000280B483B000AF584BD3F8083246
:1017A000564A23F40013C2F80832544B0122C3F8FE
:1017B000C020524BD3F82431504A43F40053C2F8AE
:1017C00024314E4B0122C3F8A0204C4BD3F80832F1
:1017D0004A4A43F48003C2F80832484B4522C3F812
:1017E0009821464BD3F80832444A23F48003C2F8C8
:1017F000083200237B6004E000BF00BF7B68013338
:101800007B607B68FF2BF7DD00BF3C4BD3F89C313E
:1018100003F00103002BF8D0384B0222C3F88420D8
:10182000364B0122C3F8A420344B4322C3F8A02135
:10183000324BD3F80832314A23F40003C2F808329D
:1018400000BF2E4BD3F8A43103F00103002BF8D0D6
:101850002A4B0122C3F8A820284B4522C3F8A8210F
:10186000264BD3F80832254A23F08073C2F8083299
:1018700000BF224BD3F8AC3103F00103002BF8D0AA
:101880001E4B0222C3F888201C4B0322C3F88C2075
:101890001A4B0222C3F89820184B0122C3F8CC201F
:1018A000164B0122C3F8D020144B0122C3F8D820D4
:1018B000124B0122C3F8D420104B0122C3F8EC20B4
:1018C0000E4B0122C3F8F0200C4B0122C3F8F82084
:1018D0000A4BD3F8C4200949094B1343C1F8C4305B
:1018E000064BD3F8C8200549064B1343C1F8C8304E
:1018F00000BF0C37BD4680BC704700BF00400740AA
:101900001BFA35080222820080B400AF064B1B6828
:10191000054A43F004031360034B044A5A6000BFB6
:10192000BD4680BC704700BF10E000E03F190100D9
:1019300000F025B800F03DB8FFF73ABC40EA0103DB
:101940009B0710B513D10246043951F8043FA3F1A7
:10195000013424EA030414F0803F05D0D9B202F820
:10196000011B59B11B12F9E742F8043BEDE7421E97
:1019700011F8013B02F8013F002BF9D110BD40EAFC
:101980000103DB0703460CD40346043A22BF51F897
:1019900004CB43F804CBB2F10402F7D2043208BFFF
:1019A0007047013A24BF11F801CB03F801CBF8D8F6
:1019B0007047034613F0030F0ED101F0FF0141EA17
:1019C000012141EA0141043A24BF43F8041BB2F16A
:1019D0000402F9D202F10402013A24BF03F8011B08
:1019E000FAE770475465726D696E616C0000000023
:1019F0005254540053454747455200FF050109041E
:101A0000A101A1000930093175089502150025FFD3
:101A1000350045FF81020509190129081500250136
:101A20007501950881020903150025FF75089520A9
:101A300091020903150025FF75089520B102C0C069
:101A40001201100100000040591C24002100010275
:101A50000001FFFF0403090428032000540048008C
:101A6000450043003600340020004A006F00790032
:101A700073007400690063006B00200020002000E8
:101A8000280320005400480045004300360034007D
:101A900020004A006F007900730074006900630041
:101AA0006B002000200020004400FFFF003C0100EC
:041AB00003FFFFFF32
:101AB4000902220001010080FA0904000001030068
:101AC40000000921100121012244000705810308B7
:101AD400000A00FF000005400B0C05090A0500017F
:101AE40001010201040105010601070108010301C6
:101AF40000FFFFFF190000000101000000010000C9
:101B040000000118000000010900000001050000A8
:101B140000010600000001070000000108000000A9
:101B2400011A000000011B000000011C000000015C
:081B34001D00000001FFFFFF8E
:04000003000001B543
:00000001FF
